%YAML 1.1
%TAG !u! tag:unity3d.com,2011:
--- !u!114 &11400000
MonoBehaviour:
  m_ObjectHideFlags: 0
  m_CorrespondingSourceObject: {fileID: 0}
  m_PrefabInstance: {fileID: 0}
  m_PrefabAsset: {fileID: 0}
  m_GameObject: {fileID: 0}
  m_Enabled: 1
  m_EditorHideFlags: 0
  m_Script: {fileID: 11500000, guid: 70263ac00c4c2bc4d8cc3b35a90445cb, type: 3}
  m_Name: Playable 1
  m_EditorClassIdentifier: 
  charName: White Knight
  prefab: {fileID: 1639662701399251716, guid: 4120ac810e3eca54a8386d17f1cb7cf0, type: 3}
  hp: 100
  attack: 10
  movesLeft: 3
  initialMoves: 3
